<?xml version="1.0" encoding="UTF-8" standalone="no"?>
<!DOCTYPE svg PUBLIC "-//W3C//DTD SVG 20010904//EN"
              "http://www.w3.org/TR/2001/REC-SVG-20010904/DTD/svg10.dtd">

<svg xmlns="http://www.w3.org/2000/svg"
     width="4.27778in" height="8in"
     viewBox="0 0 308 576">
  <path id="Top Board"
        fill="none" stroke="black" stroke-width="1"
        d="M 64.00,183.00
           C 64.00,183.00 244.00,183.00 244.00,183.00
             244.00,183.00 244.00,3.00 244.00,3.00
             244.00,3.00 64.00,3.00 64.00,3.00
             64.00,3.00 64.00,183.00 64.00,183.00 Z
           M 84.00,183.00
           C 84.00,183.00 84.00,3.00 84.00,3.00M 104.00,183.00
           C 104.00,183.00 104.00,3.00 104.00,3.00M 124.00,183.00
           C 124.00,183.00 124.00,3.00 124.00,3.00M 144.00,183.00
           C 144.00,183.00 144.00,3.00 144.00,3.00M 164.00,183.00
           C 164.00,183.00 164.00,3.00 164.00,3.00M 184.00,183.00
           C 184.00,183.00 184.00,3.00 184.00,3.00M 204.00,183.00
           C 204.00,183.00 204.00,3.00 204.00,3.00M 224.00,183.00
           C 224.00,183.00 224.00,3.00 224.00,3.00M 244.00,23.00
           C 244.00,23.00 64.00,23.00 64.00,23.00M 64.00,43.00
           C 64.00,43.00 244.00,43.00 244.00,43.00M 244.00,63.00
           C 244.00,63.00 64.00,63.00 64.00,63.00M 244.00,83.00
           C 244.00,83.00 64.00,83.00 64.00,83.00M 244.00,103.00
           C 244.00,103.00 64.00,103.00 64.00,103.00M 244.00,123.00
           C 244.00,123.00 64.00,123.00 64.00,123.00M 244.00,143.00
           C 244.00,143.00 64.00,143.00 64.00,143.00M 244.00,163.00
           C 244.00,163.00 64.00,163.00 64.00,163.00" />
  <path id="Top Sections"
        fill="none" stroke="black" stroke-width="1"
        d="M 64.00,3.00
           C 64.00,3.00 244.00,3.00 244.00,3.00
             244.00,3.00 244.00,183.00 244.00,183.00
             244.00,183.00 64.00,183.00 64.00,183.00
             64.00,183.00 64.00,3.00 64.00,3.00 Z
           M 64.00,63.00
           C 64.00,63.00 244.00,63.00 244.00,63.00M 64.00,123.00
           C 64.00,123.00 244.00,123.00 244.00,123.00M 124.00,3.00
           C 124.00,3.00 124.00,183.00 124.00,183.00M 184.00,3.00
           C 184.00,3.00 184.00,183.00 184.00,183.00" />
  <path id="Section"
        fill="none" stroke="black" stroke-width="1"
        d="M 124.00,63.00
           C 124.00,63.00 124.00,123.00 124.00,123.00
             124.00,123.00 184.00,123.00 184.00,123.00
             184.00,123.00 184.00,63.00 184.00,63.00
             184.00,63.00 124.00,63.00 124.00,63.00 Z" />
  <path id="Lines"
        fill="none" stroke="black" stroke-width="1"
        d="M 27.00,343.33
           C 27.00,343.33 154.00,93.00 154.00,93.00
             154.00,93.00 281.33,343.67 281.33,343.67" />
  <path id="Circle"
        fill="none" stroke="black" stroke-width="1"
        d="M 158.00,273.21
           C 176.04,273.03 200.83,278.80 217.00,286.76
             233.02,294.63 248.36,304.15 260.91,317.04
             301.36,358.56 314.91,420.54 294.95,475.00
             287.75,494.64 277.94,509.24 264.42,525.00
             253.15,538.14 236.44,549.53 221.00,557.25
             196.99,569.25 174.65,573.31 148.00,573.00
             137.99,572.88 124.76,570.32 115.00,567.87
             27.89,546.00 -19.06,448.13 15.01,366.00
             31.24,326.88 62.15,296.66 102.00,282.05
             115.76,277.01 127.73,275.46 142.00,273.21
             142.00,273.21 158.00,273.21 158.00,273.21 Z
           M 14.00,353.00" />
  <path id="Bottom Board"
        fill="none" stroke="black" stroke-width="1"
        d="M 64.00,513.00
           C 64.00,513.00 244.00,513.00 244.00,513.00
             244.00,513.00 244.00,333.00 244.00,333.00
             244.00,333.00 64.00,333.00 64.00,333.00
             64.00,333.00 64.00,513.00 64.00,513.00 Z
           M 84.00,513.00
           C 84.00,513.00 84.00,333.00 84.00,333.00M 104.00,513.00
           C 104.00,513.00 104.00,333.00 104.00,333.00M 124.00,513.00
           C 124.00,513.00 124.00,333.00 124.00,333.00M 144.00,513.00
           C 144.00,513.00 144.00,333.00 144.00,333.00M 164.00,513.00
           C 164.00,513.00 164.00,333.00 164.00,333.00M 184.00,513.00
           C 184.00,513.00 184.00,333.00 184.00,333.00M 204.00,513.00
           C 204.00,513.00 204.00,333.00 204.00,333.00M 224.00,513.00
           C 224.00,513.00 224.00,333.00 224.00,333.00M 244.00,353.00
           C 244.00,353.00 64.00,353.00 64.00,353.00M 64.00,373.00
           C 64.00,373.00 244.00,373.00 244.00,373.00M 244.00,393.00
           C 244.00,393.00 64.00,393.00 64.00,393.00M 244.00,413.00
           C 244.00,413.00 64.00,413.00 64.00,413.00M 244.00,433.00
           C 244.00,433.00 64.00,433.00 64.00,433.00M 244.00,453.00
           C 244.00,453.00 64.00,453.00 64.00,453.00M 244.00,473.00
           C 244.00,473.00 64.00,473.00 64.00,473.00M 244.00,493.00
           C 244.00,493.00 64.00,493.00 64.00,493.00" />
  <path id="Bottom Sections"
        fill="none" stroke="black" stroke-width="1"
        d="M 64.00,333.00
           C 64.00,333.00 244.00,333.00 244.00,333.00
             244.00,333.00 244.00,513.00 244.00,513.00
             244.00,513.00 64.00,513.00 64.00,513.00
             64.00,513.00 64.00,333.00 64.00,333.00 Z
           M 64.00,393.00
           C 64.00,393.00 244.00,393.00 244.00,393.00M 64.00,453.00
           C 64.00,453.00 244.00,453.00 244.00,453.00M 124.00,333.00
           C 124.00,333.00 124.00,513.00 124.00,513.00M 184.00,513.00
           C 184.00,513.00 184.00,333.00 184.00,333.00" />
</svg>
